…
## Examples

``` r
# Simple example
pv1 <- dynpv(
   uptakes = (1:10), # 1 patient uptakes in timestep 1, 2 patients in timestep 2, etc
   tzero = c(0,5), # Calculations are performed with prices at times 0 and 5
   payoffs = 90 + 10*(1:10), # Payoff vector of length 10 = (100, 110, ..., 190)
   prices = 1.02^((1:15)-1), # Prices increase at 2\% per timestep in future
   discrate = 0.05 # The nominal discount rate is 5\% per timestep;
                   # the real discount rate per timestep is 3\% (=5\% - 3\%)
)
pv1
#> # A tibble: 110 × 9
#>        j     k     l     t    uj    pk     R     v    pv
#>    <int> <int> <dbl> <dbl> <int> <dbl> <dbl> <dbl> <dbl>
#>  1     1     1     0     1     1   100  1    1      100 
#>  2     1     1     5     1     1   100  1.10 1      110.
#>  3     1     2     0     2     1   110  1.02 0.952  107.
#>  4     1     2     5     2     1   110  1.13 0.952  118.
#>  5     1     3     0     3     1   120  1.04 0.907  113.
#>  6     1     3     5     3     1   120  1.15 0.907  125.
#>  7     1     4     0     4     1   130  1.06 0.864  119.
#>  8     1     4     5     4     1   130  1.17 0.864  132.
#>  9     1     5     0     5     1   140  1.08 0.823  125.
#> 10     1     5     5     5     1   140  1.20 0.823  138.
#> # ℹ 100 more rows
…
